{ 
    "_id" : ObjectId("592fec1f5b6d5effffff1d23"), 
    "bot_id" : NumberInt(1), 
    "name" : "Botsome Test-Chatbot", 
    "fb_access_token" : "EAATNy3DPOrkBAFerK61CKGqfWLZCND60MBjTpHVfuZCmzYhZCn0X37EJB7Kf0UgfSyrPDm1yzCUFn65m3ZBMVoqvZBby3nuNdLlpZBtZCOGMRrnvBdbB6l08eGqUXw3TXi1JeFixhd9qX72G64swx5xXaXF0k5iXB2E8lxmVkR19gZDZD", 
    "verify_token" : "23344556"
}
