{ 
    "_id" : ObjectId("592ade55b9ef31869c185c64"), 
    "intent_id" : NumberInt(2), 
    "question" : "What are the options?", 
    "intent_obj_id" : ObjectId("592add48b9ef31869c185c5a")
}
{ 
    "_id" : ObjectId("592ade6fb9ef31869c185c65"), 
    "intent_id" : NumberInt(2), 
    "question" : "What can you help me with?", 
    "intent_obj_id" : ObjectId("592add48b9ef31869c185c5a")
}
{ 
    "_id" : ObjectId("592ade82b9ef31869c185c66"), 
    "intent_id" : NumberInt(2), 
    "question" : "What can you do for me?", 
    "intent_obj_id" : ObjectId("592add48b9ef31869c185c5a")
}
{ 
    "_id" : ObjectId("592ade92b9ef31869c185c67"), 
    "intent_id" : NumberInt(2), 
    "question" : "What can you do?", 
    "intent_obj_id" : ObjectId("592add48b9ef31869c185c5a")
}
{ 
    "_id" : ObjectId("592adea1b9ef31869c185c68"), 
    "intent_id" : NumberInt(2), 
    "question" : "What are my options?", 
    "intent_obj_id" : ObjectId("592add48b9ef31869c185c5a")
}
{ 
    "_id" : ObjectId("592adeb6b9ef31869c185c69"), 
    "intent_id" : NumberInt(2), 
    "question" : "What options do I have?", 
    "intent_obj_id" : ObjectId("592add48b9ef31869c185c5a")
}
{ 
    "_id" : ObjectId("592adeddb9ef31869c185c6a"), 
    "intent_id" : NumberInt(3), 
    "question" : "What toppings can I put on my pizza?", 
    "intent_obj_id" : ObjectId("592add6db9ef31869c185c5b")
}
{ 
    "_id" : ObjectId("592adef8b9ef31869c185c6b"), 
    "intent_id" : NumberInt(3), 
    "question" : "What toppings can I have?", 
    "intent_obj_id" : ObjectId("592add6db9ef31869c185c5b")
}
{ 
    "_id" : ObjectId("592adf0db9ef31869c185c6c"), 
    "intent_id" : NumberInt(3), 
    "question" : "What toppings can I put?", 
    "intent_obj_id" : ObjectId("592add6db9ef31869c185c5b")
}
{ 
    "_id" : ObjectId("592adf29b9ef31869c185c6d"), 
    "intent_id" : NumberInt(3), 
    "question" : "Are there any toppings I can add?", 
    "intent_obj_id" : ObjectId("592add6db9ef31869c185c5b")
}
{ 
    "_id" : ObjectId("592adf3eb9ef31869c185c6e"), 
    "intent_id" : NumberInt(3), 
    "question" : "What toppings can I add?", 
    "intent_obj_id" : ObjectId("592add6db9ef31869c185c5b")
}
{ 
    "_id" : ObjectId("592adf51b9ef31869c185c6f"), 
    "intent_id" : NumberInt(3), 
    "question" : "What about toppings?", 
    "intent_obj_id" : ObjectId("592add6db9ef31869c185c5b")
}
{ 
    "_id" : ObjectId("592adf69b9ef31869c185c70"), 
    "intent_id" : NumberInt(4), 
    "question" : "What size can my pizza have?", 
    "intent_obj_id" : ObjectId("592add7eb9ef31869c185c5c")
}
{ 
    "_id" : ObjectId("592adf86b9ef31869c185c71"), 
    "intent_id" : NumberInt(4), 
    "question" : "What are the available sizes?", 
    "intent_obj_id" : ObjectId("592add7eb9ef31869c185c5c")
}
{ 
    "_id" : ObjectId("592adf95b9ef31869c185c72"), 
    "intent_id" : NumberInt(4), 
    "question" : "What sizes?", 
    "intent_obj_id" : ObjectId("592add7eb9ef31869c185c5c")
}
{ 
    "_id" : ObjectId("592adfa8b9ef31869c185c73"), 
    "intent_id" : NumberInt(4), 
    "question" : "What size can I choose?", 
    "intent_obj_id" : ObjectId("592add7eb9ef31869c185c5c")
}
{ 
    "_id" : ObjectId("592adfb4b9ef31869c185c74"), 
    "intent_id" : NumberInt(4), 
    "question" : "What about sizes?", 
    "intent_obj_id" : ObjectId("592add7eb9ef31869c185c5c")
}
{ 
    "_id" : ObjectId("592adfcdb9ef31869c185c75"), 
    "intent_id" : NumberInt(5), 
    "question" : "I want to create a custom pizza.", 
    "intent_obj_id" : ObjectId("592add97b9ef31869c185c5d")
}
{ 
    "_id" : ObjectId("592adfe0b9ef31869c185c76"), 
    "intent_id" : NumberInt(5), 
    "question" : "I want assistance for a custom pizza", 
    "intent_obj_id" : ObjectId("592add97b9ef31869c185c5d")
}
{ 
    "_id" : ObjectId("592ae005b9ef31869c185c77"), 
    "intent_id" : NumberInt(5), 
    "question" : "I want a custom pizza", 
    "intent_obj_id" : ObjectId("592add97b9ef31869c185c5d")
}
{ 
    "_id" : ObjectId("592ae015b9ef31869c185c78"), 
    "intent_id" : NumberInt(5), 
    "question" : "I want a pizza", 
    "intent_obj_id" : ObjectId("59479721401eec440c5ac7c5")
}
{ 
    "_id" : ObjectId("592ae028b9ef31869c185c79"), 
    "intent_id" : NumberInt(5), 
    "question" : "Let's create a pizza", 
    "intent_obj_id" : ObjectId("592add97b9ef31869c185c5d")
}
{ 
    "_id" : ObjectId("592ae038b9ef31869c185c7a"), 
    "intent_id" : NumberInt(5), 
    "question" : "I want to create a pizza", 
    "intent_obj_id" : ObjectId("592add97b9ef31869c185c5d")
}
{ 
    "_id" : ObjectId("592ae054b9ef31869c185c7b"), 
    "intent_id" : NumberInt(5), 
    "question" : "Make me a pizza", 
    "intent_obj_id" : ObjectId("592add97b9ef31869c185c5d")
}
{ 
    "_id" : ObjectId("59480a3741ae4cd698c233e8"), 
    "intent_obj_id" : ObjectId("592add20b9ef31869c185c59"), 
    "intent_id" : NumberInt(1), 
    "question" : "Hi", 
    "created_date" : ISODate("2017-06-19T17:30:31.837+0000"), 
    "__v" : NumberInt(0)
}
{ 
    "_id" : ObjectId("59480a3741ae4cd698c233e9"), 
    "intent_obj_id" : ObjectId("592add20b9ef31869c185c59"), 
    "intent_id" : NumberInt(1), 
    "question" : "Hello", 
    "created_date" : ISODate("2017-06-19T17:30:31.852+0000"), 
    "__v" : NumberInt(0)
}
{ 
    "_id" : ObjectId("59480a3741ae4cd698c233ea"), 
    "intent_obj_id" : ObjectId("592add20b9ef31869c185c59"), 
    "intent_id" : NumberInt(1), 
    "question" : "How are you?", 
    "created_date" : ISODate("2017-06-19T17:30:31.862+0000"), 
    "__v" : NumberInt(0)
}
{ 
    "_id" : ObjectId("59480a3741ae4cd698c233eb"), 
    "intent_obj_id" : ObjectId("592add20b9ef31869c185c59"), 
    "intent_id" : NumberInt(1), 
    "question" : "Good afternoon", 
    "created_date" : ISODate("2017-06-19T17:30:31.908+0000"), 
    "__v" : NumberInt(0)
}
{ 
    "_id" : ObjectId("59480a3741ae4cd698c233ec"), 
    "intent_obj_id" : ObjectId("592add20b9ef31869c185c59"), 
    "intent_id" : NumberInt(1), 
    "question" : "Good morning", 
    "created_date" : ISODate("2017-06-19T17:30:31.918+0000"), 
    "__v" : NumberInt(0)
}
{ 
    "_id" : ObjectId("59480a3741ae4cd698c233ed"), 
    "intent_obj_id" : ObjectId("592add20b9ef31869c185c59"), 
    "intent_id" : NumberInt(1), 
    "question" : "Good evening", 
    "created_date" : ISODate("2017-06-19T17:30:31.927+0000"), 
    "__v" : NumberInt(0)
}
{ 
    "_id" : ObjectId("594833437bbb06e3c806b46b"), 
    "intent_obj_id" : ObjectId("594833427bbb06e3c806b46a"), 
    "question" : "What papers do I need to get a new subscription?", 
    "created_date" : ISODate("2017-06-19T20:25:39.069+0000"), 
    "__v" : NumberInt(0)
}
{ 
    "_id" : ObjectId("594833437bbb06e3c806b46c"), 
    "intent_obj_id" : ObjectId("594833427bbb06e3c806b46a"), 
    "question" : "What do I need for a new subscription?", 
    "created_date" : ISODate("2017-06-19T20:25:39.082+0000"), 
    "__v" : NumberInt(0)
}
{ 
    "_id" : ObjectId("594833437bbb06e3c806b46d"), 
    "intent_obj_id" : ObjectId("594833427bbb06e3c806b46a"), 
    "question" : "How can I open a new account?", 
    "created_date" : ISODate("2017-06-19T20:25:39.094+0000"), 
    "__v" : NumberInt(0)
}
{ 
    "_id" : ObjectId("594833437bbb06e3c806b46e"), 
    "intent_obj_id" : ObjectId("594833427bbb06e3c806b46a"), 
    "question" : "I want an account. What do I need?", 
    "created_date" : ISODate("2017-06-19T20:25:39.102+0000"), 
    "__v" : NumberInt(0)
}
{ 
    "_id" : ObjectId("594833437bbb06e3c806b46f"), 
    "intent_obj_id" : ObjectId("594833427bbb06e3c806b46a"), 
    "question" : "How can I get a subscription?", 
    "created_date" : ISODate("2017-06-19T20:25:39.109+0000"), 
    "__v" : NumberInt(0)
}
{ 
    "_id" : ObjectId("594834277bbb06e3c806b471"), 
    "intent_obj_id" : ObjectId("594834277bbb06e3c806b470"), 
    "question" : "How can I switch my phone provider?", 
    "created_date" : ISODate("2017-06-19T20:29:27.477+0000"), 
    "__v" : NumberInt(0)
}
{ 
    "_id" : ObjectId("594834277bbb06e3c806b472"), 
    "intent_obj_id" : ObjectId("594834277bbb06e3c806b470"), 
    "question" : "How can I switch my telephony provider?", 
    "created_date" : ISODate("2017-06-19T20:29:27.488+0000"), 
    "__v" : NumberInt(0)
}
{ 
    "_id" : ObjectId("594834277bbb06e3c806b473"), 
    "intent_obj_id" : ObjectId("594834277bbb06e3c806b470"), 
    "question" : "I have another telephony provider. How can I switch my provider? ", 
    "created_date" : ISODate("2017-06-19T20:29:27.503+0000"), 
    "__v" : NumberInt(0)
}
{ 
    "_id" : ObjectId("594834277bbb06e3c806b474"), 
    "intent_obj_id" : ObjectId("594834277bbb06e3c806b470"), 
    "question" : "How can I keep my phone number and switch provider?", 
    "created_date" : ISODate("2017-06-19T20:29:27.513+0000"), 
    "__v" : NumberInt(0)
}
{ 
    "_id" : ObjectId("594834277bbb06e3c806b475"), 
    "intent_obj_id" : ObjectId("594834277bbb06e3c806b470"), 
    "question" : "Is it possible to switch providers and keep my number?", 
    "created_date" : ISODate("2017-06-19T20:29:27.539+0000"), 
    "__v" : NumberInt(0)
}
{ 
    "_id" : ObjectId("594834277bbb06e3c806b476"), 
    "intent_obj_id" : ObjectId("594834277bbb06e3c806b470"), 
    "question" : "What do I have to do to switch my provider and keep my phone number?", 
    "created_date" : ISODate("2017-06-19T20:29:27.552+0000"), 
    "__v" : NumberInt(0)
}
{ 
    "_id" : ObjectId("594836b78721cfb8201390cc"), 
    "intent_obj_id" : ObjectId("594836b78721cfb8201390cb"), 
    "question" : "How can I change my subscription?", 
    "created_date" : ISODate("2017-06-19T20:40:23.671+0000"), 
    "__v" : NumberInt(0)
}
{ 
    "_id" : ObjectId("594836b78721cfb8201390cd"), 
    "intent_obj_id" : ObjectId("594836b78721cfb8201390cb"), 
    "question" : "It is possible to change my subscription type?", 
    "created_date" : ISODate("2017-06-19T20:40:23.685+0000"), 
    "__v" : NumberInt(0)
}
{ 
    "_id" : ObjectId("594836b78721cfb8201390ce"), 
    "intent_obj_id" : ObjectId("594836b78721cfb8201390cb"), 
    "question" : "How can I change my subscription type?", 
    "created_date" : ISODate("2017-06-19T20:40:23.699+0000"), 
    "__v" : NumberInt(0)
}
{ 
    "_id" : ObjectId("594836b78721cfb8201390cf"), 
    "intent_obj_id" : ObjectId("594836b78721cfb8201390cb"), 
    "question" : "What do I have to do to change my subscription?", 
    "created_date" : ISODate("2017-06-19T20:40:23.704+0000"), 
    "__v" : NumberInt(0)
}
{ 
    "_id" : ObjectId("594836b78721cfb8201390d0"), 
    "intent_obj_id" : ObjectId("594836b78721cfb8201390cb"), 
    "question" : "What do I need to change my subscription type?", 
    "created_date" : ISODate("2017-06-19T20:40:23.712+0000"), 
    "__v" : NumberInt(0)
}
{ 
    "_id" : ObjectId("5948377b8721cfb8201390d2"), 
    "intent_obj_id" : ObjectId("5948377b8721cfb8201390d1"), 
    "question" : "How can I check my plan usage?", 
    "created_date" : ISODate("2017-06-19T20:43:39.469+0000"), 
    "__v" : NumberInt(0)
}
{ 
    "_id" : ObjectId("5948377b8721cfb8201390d3"), 
    "intent_obj_id" : ObjectId("5948377b8721cfb8201390d1"), 
    "question" : "Where do I check my data usage?", 
    "created_date" : ISODate("2017-06-19T20:43:39.476+0000"), 
    "__v" : NumberInt(0)
}
{ 
    "_id" : ObjectId("5948377b8721cfb8201390d4"), 
    "intent_obj_id" : ObjectId("5948377b8721cfb8201390d1"), 
    "question" : "How to check data usage?", 
    "created_date" : ISODate("2017-06-19T20:43:39.492+0000"), 
    "__v" : NumberInt(0)
}
{ 
    "_id" : ObjectId("5948377b8721cfb8201390d5"), 
    "intent_obj_id" : ObjectId("5948377b8721cfb8201390d1"), 
    "question" : "How to check what I used of my plan?", 
    "created_date" : ISODate("2017-06-19T20:43:39.507+0000"), 
    "__v" : NumberInt(0)
}
{ 
    "_id" : ObjectId("5948377b8721cfb8201390d6"), 
    "intent_obj_id" : ObjectId("5948377b8721cfb8201390d1"), 
    "question" : "How to check is I over-used my data?", 
    "created_date" : ISODate("2017-06-19T20:43:39.527+0000"), 
    "__v" : NumberInt(0)
}
{ 
    "_id" : ObjectId("5948377b8721cfb8201390d7"), 
    "intent_obj_id" : ObjectId("5948377b8721cfb8201390d1"), 
    "question" : "Where do I check my data usage?", 
    "created_date" : ISODate("2017-06-19T20:43:39.544+0000"), 
    "__v" : NumberInt(0)
}
{ 
    "_id" : ObjectId("594838358721cfb8201390d9"), 
    "intent_obj_id" : ObjectId("594838348721cfb8201390d8"), 
    "question" : "What happens if I use up my included data?", 
    "created_date" : ISODate("2017-06-19T20:46:45.043+0000"), 
    "__v" : NumberInt(0)
}
{ 
    "_id" : ObjectId("594838358721cfb8201390da"), 
    "intent_obj_id" : ObjectId("594838348721cfb8201390d8"), 
    "question" : "What happens if I use all of my data?", 
    "created_date" : ISODate("2017-06-19T20:46:45.049+0000"), 
    "__v" : NumberInt(0)
}
{ 
    "_id" : ObjectId("594838358721cfb8201390db"), 
    "intent_obj_id" : ObjectId("594838348721cfb8201390d8"), 
    "question" : "How much will you charge for extra data usage?", 
    "created_date" : ISODate("2017-06-19T20:46:45.064+0000"), 
    "__v" : NumberInt(0)
}
{ 
    "_id" : ObjectId("594838358721cfb8201390dc"), 
    "intent_obj_id" : ObjectId("594838348721cfb8201390d8"), 
    "question" : "Am I charged extra for extra data usage?", 
    "created_date" : ISODate("2017-06-19T20:46:45.071+0000"), 
    "__v" : NumberInt(0)
}
{ 
    "_id" : ObjectId("594838358721cfb8201390dd"), 
    "intent_obj_id" : ObjectId("594838348721cfb8201390d8"), 
    "question" : "How am I charged for extra data usage?", 
    "created_date" : ISODate("2017-06-19T20:46:45.078+0000"), 
    "__v" : NumberInt(0)
}
{ 
    "_id" : ObjectId("594838358721cfb8201390de"), 
    "intent_obj_id" : ObjectId("594838348721cfb8201390d8"), 
    "question" : "What will happen if I exceed my data usage?", 
    "created_date" : ISODate("2017-06-19T20:46:45.112+0000"), 
    "__v" : NumberInt(0)
}
{ 
    "_id" : ObjectId("594838358721cfb8201390df"), 
    "intent_obj_id" : ObjectId("594838348721cfb8201390d8"), 
    "question" : "What will happen if I use all of my data?", 
    "created_date" : ISODate("2017-06-19T20:46:45.126+0000"), 
    "__v" : NumberInt(0)
}
{ 
    "_id" : ObjectId("594838c28721cfb8201390e1"), 
    "intent_obj_id" : ObjectId("594838c28721cfb8201390e0"), 
    "question" : "How do I pay my bills?", 
    "created_date" : ISODate("2017-06-19T20:49:06.714+0000"), 
    "__v" : NumberInt(0)
}
{ 
    "_id" : ObjectId("594838c28721cfb8201390e2"), 
    "intent_obj_id" : ObjectId("594838c28721cfb8201390e0"), 
    "question" : "Where can I pay my bills?", 
    "created_date" : ISODate("2017-06-19T20:49:06.722+0000"), 
    "__v" : NumberInt(0)
}
{ 
    "_id" : ObjectId("594838c28721cfb8201390e3"), 
    "intent_obj_id" : ObjectId("594838c28721cfb8201390e0"), 
    "question" : "How can I pay my bills?", 
    "created_date" : ISODate("2017-06-19T20:49:06.732+0000"), 
    "__v" : NumberInt(0)
}
{ 
    "_id" : ObjectId("594838c28721cfb8201390e4"), 
    "intent_obj_id" : ObjectId("594838c28721cfb8201390e0"), 
    "question" : "What are the ways I could pay my bills?", 
    "created_date" : ISODate("2017-06-19T20:49:06.742+0000"), 
    "__v" : NumberInt(0)
}
{ 
    "_id" : ObjectId("594838c28721cfb8201390e5"), 
    "intent_obj_id" : ObjectId("594838c28721cfb8201390e0"), 
    "question" : "What are the options for paying the bill?", 
    "created_date" : ISODate("2017-06-19T20:49:06.752+0000"), 
    "__v" : NumberInt(0)
}
{ 
    "_id" : ObjectId("594838c28721cfb8201390e6"), 
    "intent_obj_id" : ObjectId("594838c28721cfb8201390e0"), 
    "question" : "I have to pay my bill. How can I do it?", 
    "created_date" : ISODate("2017-06-19T20:49:06.758+0000"), 
    "__v" : NumberInt(0)
}
{ 
    "_id" : ObjectId("5948392f8721cfb8201390e8"), 
    "intent_obj_id" : ObjectId("5948392f8721cfb8201390e7"), 
    "question" : "How can I activate my prepay?", 
    "created_date" : ISODate("2017-06-19T20:50:55.575+0000"), 
    "__v" : NumberInt(0)
}
{ 
    "_id" : ObjectId("5948392f8721cfb8201390e9"), 
    "intent_obj_id" : ObjectId("5948392f8721cfb8201390e7"), 
    "question" : "I bought a new prepay SIM. How do I activate?", 
    "created_date" : ISODate("2017-06-19T20:50:55.586+0000"), 
    "__v" : NumberInt(0)
}
{ 
    "_id" : ObjectId("5948392f8721cfb8201390ea"), 
    "intent_obj_id" : ObjectId("5948392f8721cfb8201390e7"), 
    "question" : "How to activate a prepay?", 
    "created_date" : ISODate("2017-06-19T20:50:55.602+0000"), 
    "__v" : NumberInt(0)
}
{ 
    "_id" : ObjectId("5948392f8721cfb8201390eb"), 
    "intent_obj_id" : ObjectId("5948392f8721cfb8201390e7"), 
    "question" : "New prepay SIM activation.", 
    "created_date" : ISODate("2017-06-19T20:50:55.614+0000"), 
    "__v" : NumberInt(0)
}
{ 
    "_id" : ObjectId("5948392f8721cfb8201390ec"), 
    "intent_obj_id" : ObjectId("5948392f8721cfb8201390e7"), 
    "question" : "How do I activate my new prepay SIM?", 
    "created_date" : ISODate("2017-06-19T20:50:55.624+0000"), 
    "__v" : NumberInt(0)
}
{ 
    "_id" : ObjectId("594839728721cfb8201390ed"), 
    "intent_obj_id" : ObjectId("594834277bbb06e3c806b470"), 
    "question" : "How can I transfer from another provider?", 
    "created_date" : ISODate("2017-06-19T20:52:02.795+0000"), 
    "__v" : NumberInt(0)
}
{ 
    "_id" : ObjectId("594839728721cfb8201390ee"), 
    "intent_obj_id" : ObjectId("594834277bbb06e3c806b470"), 
    "question" : "How do I transfer to you?", 
    "created_date" : ISODate("2017-06-19T20:52:02.810+0000"), 
    "__v" : NumberInt(0)
}
{ 
    "_id" : ObjectId("594839d98721cfb8201390f0"), 
    "intent_obj_id" : ObjectId("594839d98721cfb8201390ef"), 
    "question" : "What plans do you have?", 
    "created_date" : ISODate("2017-06-19T20:53:45.253+0000"), 
    "__v" : NumberInt(0)
}
{ 
    "_id" : ObjectId("594839d98721cfb8201390f1"), 
    "intent_obj_id" : ObjectId("594839d98721cfb8201390ef"), 
    "question" : "Can I get a personalized plan? ", 
    "created_date" : ISODate("2017-06-19T20:53:45.264+0000"), 
    "__v" : NumberInt(0)
}
{ 
    "_id" : ObjectId("594839d98721cfb8201390f2"), 
    "intent_obj_id" : ObjectId("594839d98721cfb8201390ef"), 
    "question" : "What types of plans do you have?", 
    "created_date" : ISODate("2017-06-19T20:53:45.279+0000"), 
    "__v" : NumberInt(0)
}
{ 
    "_id" : ObjectId("594839d98721cfb8201390f3"), 
    "intent_obj_id" : ObjectId("594839d98721cfb8201390ef"), 
    "question" : "What type of plan can I choose?", 
    "created_date" : ISODate("2017-06-19T20:53:45.285+0000"), 
    "__v" : NumberInt(0)
}
{ 
    "_id" : ObjectId("5948423b8721cfb820139105"), 
    "intent_obj_id" : ObjectId("5948423a8721cfb820139104"), 
    "question" : "Hi.", 
    "created_date" : ISODate("2017-06-19T21:29:31.108+0000"), 
    "__v" : NumberInt(0)
}
{ 
    "_id" : ObjectId("5948423b8721cfb820139106"), 
    "intent_obj_id" : ObjectId("5948423a8721cfb820139104"), 
    "question" : "Hello", 
    "created_date" : ISODate("2017-06-19T21:29:31.114+0000"), 
    "__v" : NumberInt(0)
}
{ 
    "_id" : ObjectId("5948423b8721cfb820139107"), 
    "intent_obj_id" : ObjectId("5948423a8721cfb820139104"), 
    "question" : "Hi there", 
    "created_date" : ISODate("2017-06-19T21:29:31.126+0000"), 
    "__v" : NumberInt(0)
}
{ 
    "_id" : ObjectId("5948423b8721cfb820139108"), 
    "intent_obj_id" : ObjectId("5948423a8721cfb820139104"), 
    "question" : "How are you?", 
    "created_date" : ISODate("2017-06-19T21:29:31.138+0000"), 
    "__v" : NumberInt(0)
}
{ 
    "_id" : ObjectId("5948423b8721cfb820139109"), 
    "intent_obj_id" : ObjectId("5948423a8721cfb820139104"), 
    "question" : "Good morning", 
    "created_date" : ISODate("2017-06-19T21:29:31.149+0000"), 
    "__v" : NumberInt(0)
}
{ 
    "_id" : ObjectId("5948423b8721cfb82013910a"), 
    "intent_obj_id" : ObjectId("5948423a8721cfb820139104"), 
    "question" : "Good evening", 
    "created_date" : ISODate("2017-06-19T21:29:31.160+0000"), 
    "__v" : NumberInt(0)
}
{ 
    "_id" : ObjectId("594842838721cfb82013910c"), 
    "intent_obj_id" : ObjectId("594842838721cfb82013910b"), 
    "question" : "What can you help me with?", 
    "created_date" : ISODate("2017-06-19T21:30:43.414+0000"), 
    "__v" : NumberInt(0)
}
{ 
    "_id" : ObjectId("594842838721cfb82013910d"), 
    "intent_obj_id" : ObjectId("594842838721cfb82013910b"), 
    "question" : "What do you know?", 
    "created_date" : ISODate("2017-06-19T21:30:43.426+0000"), 
    "__v" : NumberInt(0)
}
{ 
    "_id" : ObjectId("594842838721cfb82013910e"), 
    "intent_obj_id" : ObjectId("594842838721cfb82013910b"), 
    "question" : "How can you help me?", 
    "created_date" : ISODate("2017-06-19T21:30:43.443+0000"), 
    "__v" : NumberInt(0)
}
{ 
    "_id" : ObjectId("594842838721cfb82013910f"), 
    "intent_obj_id" : ObjectId("594842838721cfb82013910b"), 
    "question" : "What are my options?", 
    "created_date" : ISODate("2017-06-19T21:30:43.452+0000"), 
    "__v" : NumberInt(0)
}
{ 
    "_id" : ObjectId("594842838721cfb820139110"), 
    "intent_obj_id" : ObjectId("594842838721cfb82013910b"), 
    "question" : "What can you do for me?", 
    "created_date" : ISODate("2017-06-19T21:30:43.457+0000"), 
    "__v" : NumberInt(0)
}
{ 
    "_id" : ObjectId("594847157ae3d4eb4092425e"), 
    "intent_obj_id" : ObjectId("594833427bbb06e3c806b46a"), 
    "question" : "How can I get a new plan?", 
    "created_date" : ISODate("2017-06-19T21:50:13.841+0000"), 
    "__v" : NumberInt(0)
}
{ 
    "_id" : ObjectId("594847c8922676e6fc6dabbb"), 
    "intent_obj_id" : ObjectId("594833427bbb06e3c806b46a"), 
    "question" : "How can I open a new plan?", 
    "created_date" : ISODate("2017-06-19T21:53:12.379+0000"), 
    "__v" : NumberInt(0)
}
